[
    {
        "title": "Toolchain",
        "type": "section",
        "children": [
            {
                "key": "spm-tasks.toolchain",
                "title": "Toolchain",
                "type": "enum",
                "description": "The toolchain used for development and testing.",
                "required": true,
                "values": [
                    ["swift", "Swift Toolchain"],
                    ["custom", "Custom"]
                ]
            },
            {
                "key": "spm-tasks.toolchain-path",
                "title": "Custom Toolchain Path",
                "type": "path",
                "description": "The custom path if your toolchain is set to \"Custom\", such as if you have built the toolchain from source.",
                "allowsFiles": false,
                "allowFolders": true
            },
        ]
    }
]